%YAML 1.1
%TAG !u! tag:unity3d.com,2011:
--- !u!1045 &1
EditorBuildSettings:
  m_ObjectHideFlags: 0
  serializedVersion: 2
  m_Scenes:
  - enabled: 1
    path: Assets/Scenes/Menu.unity
    guid: 5b66437fe6ed73a4dafcfb8625250467
  - enabled: 1
    path: Assets/Scenes/Gameplay.unity
    guid: ceed12d66222e1044855578050907b5a
